D:\eclipse\E-Learning\src\main\java\com\hust\elearning\repository\LessonRepository.java
D:\eclipse\E-Learning\src\main\java\com\hust\elearning\repository\CourseRepository.java
D:\eclipse\E-Learning\src\main\java\com\hust\elearning\repository\GroupCourseRepository.java
D:\eclipse\E-Learning\src\main\java\com\hust\elearning\controller\UploadController.java
D:\eclipse\E-Learning\src\main\java\com\hust\elearning\dto\QuestionVideoAjax.java
D:\eclipse\E-Learning\src\main\java\com\hust\elearning\entity\TokenEntity.java
D:\eclipse\E-Learning\src\main\java\com\hust\elearning\util\DateUtils.java
D:\eclipse\E-Learning\src\main\java\com\hust\elearning\repository\GroupChatRepository.java
D:\eclipse\E-Learning\src\main\java\com\hust\elearning\entity\Course.java
D:\eclipse\E-Learning\src\main\java\com\hust\elearning\entity\CourseMember.java
D:\eclipse\E-Learning\src\main\java\com\hust\elearning\entity\Question.java
D:\eclipse\E-Learning\src\main\java\com\hust\elearning\entity\DocumentRole.java
D:\eclipse\E-Learning\src\main\java\com\hust\elearning\repository\AssignmentRepository.java
D:\eclipse\E-Learning\src\main\java\com\hust\elearning\dto\MemberProcessAjax.java
D:\eclipse\E-Learning\src\main\java\com\hust\elearning\config\auth\CustomLogoutSuccessHandler.java
D:\eclipse\E-Learning\src\main\java\com\hust\elearning\config\SocketConfiguration.java
D:\eclipse\E-Learning\src\main\java\com\hust\elearning\entity\QuestionAnswer.java
D:\eclipse\E-Learning\src\main\java\com\hust\elearning\entity\Message.java
D:\eclipse\E-Learning\src\main\java\com\hust\elearning\repository\MessageRepository.java
D:\eclipse\E-Learning\src\main\java\com\hust\elearning\services\NotificationService.java
D:\eclipse\E-Learning\src\main\java\com\hust\elearning\dto\MessageUpdateAjax.java
D:\eclipse\E-Learning\src\main\java\com\hust\elearning\repository\CourseMemberRepository.java
D:\eclipse\E-Learning\src\main\java\com\hust\elearning\controller\FileController.java
D:\eclipse\E-Learning\src\main\java\com\hust\elearning\config\I18nConfiguration.java
D:\eclipse\E-Learning\src\main\java\com\hust\elearning\controller\UserController.java
D:\eclipse\E-Learning\src\main\java\com\hust\elearning\entity\LastLogin.java
D:\eclipse\E-Learning\src\main\java\com\hust\elearning\services\PostService.java
D:\eclipse\E-Learning\src\main\java\com\hust\elearning\controller\MessageController.java
D:\eclipse\E-Learning\src\main\java\com\hust\elearning\repository\TokenRepository.java
D:\eclipse\E-Learning\src\main\java\com\hust\elearning\entity\ViewVideo.java
D:\eclipse\E-Learning\src\main\java\com\hust\elearning\ELearningApplication.java
D:\eclipse\E-Learning\src\main\java\com\hust\elearning\util\constants\URL.java
D:\eclipse\E-Learning\src\main\java\com\hust\elearning\dto\MessageAjax.java
D:\eclipse\E-Learning\src\main\java\com\hust\elearning\entity\AssignmentSubmit.java
D:\eclipse\E-Learning\src\main\java\com\hust\elearning\entity\Subject.java
D:\eclipse\E-Learning\src\main\java\com\hust\elearning\util\MyLog.java
D:\eclipse\E-Learning\src\main\java\com\hust\elearning\controller\TestController.java
D:\eclipse\E-Learning\src\main\java\com\hust\elearning\entity\Document.java
D:\eclipse\E-Learning\src\main\java\com\hust\elearning\services\UploadServices.java
D:\eclipse\E-Learning\src\main\java\com\hust\elearning\config\WebMvcConfig.java
D:\eclipse\E-Learning\src\main\java\com\hust\elearning\entity\Notification.java
D:\eclipse\E-Learning\src\main\java\com\hust\elearning\repository\DocumentRepository.java
D:\eclipse\E-Learning\src\main\java\com\hust\elearning\services\QuestionService.java
D:\eclipse\E-Learning\src\main\java\com\hust\elearning\dto\NotificationAjax.java
D:\eclipse\E-Learning\src\main\java\com\hust\elearning\repository\AccountRepository.java
D:\eclipse\E-Learning\src\main\java\com\hust\elearning\dto\SubjectAjax.java
D:\eclipse\E-Learning\src\main\java\com\hust\elearning\util\constants\Constants.java
D:\eclipse\E-Learning\src\main\java\com\hust\elearning\entity\Account.java
D:\eclipse\E-Learning\src\main\java\com\hust\elearning\endpoint\MyEndPoint.java
D:\eclipse\E-Learning\src\main\java\com\hust\elearning\entity\GroupChatMember.java
D:\eclipse\E-Learning\src\main\java\com\hust\elearning\entity\MessageRecipient.java
D:\eclipse\E-Learning\src\main\java\com\hust\elearning\util\DataExample.java
D:\eclipse\E-Learning\src\main\java\com\hust\elearning\repository\PostRepository.java
D:\eclipse\E-Learning\src\main\java\com\hust\elearning\controller\CourseController.java
D:\eclipse\E-Learning\src\main\java\com\hust\elearning\entity\Post.java
D:\eclipse\E-Learning\src\main\java\com\hust\elearning\controller\BaseController.java
D:\eclipse\E-Learning\src\main\java\com\hust\elearning\repository\QuestionRepository.java
D:\eclipse\E-Learning\src\main\java\com\hust\elearning\controller\AdminController.java
D:\eclipse\E-Learning\src\main\java\com\hust\elearning\config\auth\ConfigSecurity.java
D:\eclipse\E-Learning\src\main\java\com\hust\elearning\services\TokenService.java
D:\eclipse\E-Learning\src\main\java\com\hust\elearning\ServletInitializer.java
D:\eclipse\E-Learning\src\main\java\com\hust\elearning\repository\NotificationRepository.java
D:\eclipse\E-Learning\src\main\java\com\hust\elearning\entity\GroupCourse.java
D:\eclipse\E-Learning\src\main\java\com\hust\elearning\entity\PostReply.java
D:\eclipse\E-Learning\src\main\java\com\hust\elearning\services\CourseService.java
D:\eclipse\E-Learning\src\main\java\com\hust\elearning\dto\GroupChatAjax.java
D:\eclipse\E-Learning\src\main\java\com\hust\elearning\entity\NotificationRecipient.java
D:\eclipse\E-Learning\src\main\java\com\hust\elearning\dto\UserAjax.java
D:\eclipse\E-Learning\src\main\java\com\hust\elearning\entity\GroupChat.java
D:\eclipse\E-Learning\src\main\java\com\hust\elearning\services\EmailService.java
D:\eclipse\E-Learning\src\main\java\com\hust\elearning\dto\MessageTemplateDto.java
D:\eclipse\E-Learning\src\main\java\com\hust\elearning\dto\ServerResponseDto.java
D:\eclipse\E-Learning\src\main\java\com\hust\elearning\controller\HomeController.java
D:\eclipse\E-Learning\src\main\java\com\hust\elearning\endpoint\EndpointConfig.java
D:\eclipse\E-Learning\src\main\java\com\hust\elearning\entity\ConversationReply.java
D:\eclipse\E-Learning\src\main\java\com\hust\elearning\services\AccountService.java
D:\eclipse\E-Learning\src\main\java\com\hust\elearning\controller\PostController.java
D:\eclipse\E-Learning\src\main\java\com\hust\elearning\entity\Assignment.java
D:\eclipse\E-Learning\src\main\java\com\hust\elearning\services\MessageService.java
D:\eclipse\E-Learning\src\main\java\com\hust\elearning\entity\Lesson.java
D:\eclipse\E-Learning\src\main\java\com\hust\elearning\config\auth\UserDetailServiceImpl.java
D:\eclipse\E-Learning\src\main\java\com\hust\elearning\entity\Conversation.java
